…
``` r
data <- data %>% 
    mutate(EVTYPE = gsub("[[:punct:]]", " ", toupper(str_squish(EVTYPE)))) %>%
    mutate(EVTYPE = gsub("TSTM", "THUNDERSTORM", EVTYPE)) %>%
    filter(!grepl('SUMMARY',EVTYPE))
```

``` r
data %>% group_by(EVTYPE) %>% summarise(count=n()) %>% arrange(desc(count))
```

    ## `summarise()` ungrouping output (override with `.groups` argument)

    ## # A tibble: 422 x 2
    ##    EVTYPE              count
    ##    <chr>               <int>
    ##  1 THUNDERSTORM WIND  106892
    ##  2 TORNADO             39944
    ##  3 HAIL                26130
    ##  4 FLASH FLOOD         20968
    ##  5 LIGHTNING           13293
    ##  6 THUNDERSTORM WINDS  12094
    ##  7 FLOOD               10175
    ##  8 HIGH WIND            5522
    ##  9 STRONG WIND          3372
    ## 10 WINTER STORM         1508
    ## # … with 412 more rows
…
